<?xml version="1.0" encoding="UTF-8" standalone="no"?>
<!DOCTYPE log SYSTEM "logger.dtd">
<log>
<record>
  <date>2019-01-30T18:12:27</date>
  <millis>1548846747594</millis>
  <sequence>0</sequence>
  <level>START</level>
  <class>com.kms.katalon.core.logging.KeywordLogger</class>
  <method>startSuite</method>
  <thread>1</thread>
  <message>Start Test Suite : Test Suites/ACM-119</message>
  <nestedLevel>0</nestedLevel>
  <property name="name">ACM-119</property>
  <property name="description"></property>
  <property name="id">Test Suites/ACM-119</property>
</record>
<record>
  <date>2019-01-30T18:12:27</date>
  <millis>1548846747879</millis>
  <sequence>1</sequence>
  <level>RUN_DATA</level>
  <class>com.kms.katalon.core.logging.KeywordLogger</class>
  <method>logMessage</method>
  <thread>1</thread>
  <message>Logging run data &amp;apos;hostName&amp;apos; with value &amp;apos;Ayu Sinaga - AyuSinaga-PC&amp;apos;</message>
  <nestedLevel>0</nestedLevel>
  <property name="hostName">Ayu Sinaga - AyuSinaga-PC</property>
</record>
<record>
  <date>2019-01-30T18:12:27</date>
  <millis>1548846747880</millis>
  <sequence>2</sequence>
  <level>RUN_DATA</level>
  <class>com.kms.katalon.core.logging.KeywordLogger</class>
  <method>logMessage</method>
  <thread>1</thread>
  <message>Logging run data &amp;apos;os&amp;apos; with value &amp;apos;Windows 7 64bit&amp;apos;</message>
  <nestedLevel>0</nestedLevel>
  <property name="os">Windows 7 64bit</property>
</record>
<record>
  <date>2019-01-30T18:12:27</date>
  <millis>1548846747881</millis>
  <sequence>3</sequence>
  <level>RUN_DATA</level>
  <class>com.kms.katalon.core.logging.KeywordLogger</class>
  <method>logMessage</method>
  <thread>1</thread>
  <message>Logging run data &amp;apos;hostAddress&amp;apos; with value &amp;apos;172.18.0.181&amp;apos;</message>
  <nestedLevel>0</nestedLevel>
  <property name="hostAddress">172.18.0.181</property>
</record>
<record>
  <date>2019-01-30T18:12:27</date>
  <millis>1548846747944</millis>
  <sequence>4</sequence>
  <level>RUN_DATA</level>
  <class>com.kms.katalon.core.logging.KeywordLogger</class>
  <method>logMessage</method>
  <thread>1</thread>
  <message>Logging run data &amp;apos;katalonVersion&amp;apos; with value &amp;apos;5.8.6.1&amp;apos;</message>
  <nestedLevel>0</nestedLevel>
  <property name="katalonVersion">5.8.6.1</property>
</record>
<record>
  <date>2019-01-30T18:12:30</date>
  <millis>1548846750617</millis>
  <sequence>5</sequence>
  <level>START</level>
  <class>com.kms.katalon.core.logging.KeywordLogger</class>
  <method>startTest</method>
  <thread>1</thread>
  <message>Start Test Case : Test Cases/ACM-119</message>
  <nestedLevel>1</nestedLevel>
  <property name="name">Test Cases/ACM-119</property>
  <property name="description">Summary: [API] Get Rate, create order, cancel order dan get status delivery GRAB using python\nDescription: Dikarenakan perbedaan hasil encode menggunakan nodejs/php dengan python. Maka untuk semua proses call API Grab akan dilakukan oleh endpoint ini menggunakan bahasa pemrograman python.\n\nSemua script dari php/nodejs/golang akan memanggil endpoint ini\n\nurl : \\{hostname\\}/grab/deliveries \u00E2\u2020\u2019 untuk post create order\n\nurl : \\{hostname\\}/grab/deliveries/quotes \u00E2\u2020\u2019 untuk post get rate\n\nurl: \\{hostname\\}/grab/deliveries/\\{delivery_id\\} \u00E2\u2020\u2019 untuk get tracking dan delete/cancel order\n\nmethod : method yang digunakan di dokumentasi api grab. pilihan value : POST, GET, DELETE\n\nheader :\n\n* Content-Type : application/json\n* safe_id : safe id dari grab (mandatory)\n* secret : secret dari grab (mandatory)\n\nbody : parameter yang dikirimkan ke grab dalam format json, lihat dokumentasi api grab.\n\ncontoh body json :\n\n\\{\&quot;packages\&quot;:\\[\\{\&quot;name\&quot;:\&quot;Sepatu\&quot;,\&quot;description\&quot;:\&quot;Sepatu\&quot;,\&quot;quantity\&quot;:1,\&quot;price\&quot;:10000,\&quot;dimension\&quot;:\\{\&quot;height\&quot;:1,\&quot;width\&quot;:1,\&quot;depth\&quot;:1,\&quot;weight\&quot;:1\\}\u00E2\u20AC\u0152\\}\\],\&quot;origin\&quot;:\\{\&quot;address\&quot;:\&quot;jl. hayam wuruk\&quot;,\&quot;keywords\&quot;:\&quot;hayam wuruk\&quot;,\&quot;coordinates\&quot;:\\{\&quot;latitude\&quot;:\\-6.166892,\&quot;longitude\&quot;:106.820899\\}\u00E2\u20AC\u0152\\},\&quot;destination\&quot;:\\{\&quot;address\&quot;:\&quot;jl. gajah mada\&quot;,\&quot;keywords\&quot;:\&quot;gajah mada\&quot;,\&quot;coordinates\&quot;:\\{\&quot;latitude\&quot;:\\-6.14104,\&quot;longitude\&quot;:106.814285\\}\u00E2\u20AC\u0152\\}\u00E2\u20AC\u0152\\}\n\nresponse : response dari grab dalam format json bergantung dengan endpoint yang dipanggil\n\ncontoh response :\n\n\\{\&quot;quotes\&quot;:\\[\\{\&quot;service\&quot;:\\{\&quot;id\&quot;:0,\&quot;type\&quot;:\&quot;INSTANT\&quot;,\&quot;name\&quot;:\&quot;GrabExpress\&quot;\\},\&quot;currency\&quot;:\\{\&quot;code\&quot;:\&quot;IDR\&quot;,\&quot;symbol\&quot;:\&quot;Rp\&quot;,\&quot;exponent\&quot;:2\\},\&quot;amount\&quot;:13000,\&quot;estimatedTimeline\&quot;:\\{\&quot;pickup\&quot;:\&quot;2019-01-24T06:21:10Z\&quot;,\&quot;dropoff\&quot;:\&quot;2019-01-24T06:33:53Z\&quot;\\},\&quot;distance\&quot;:3739\\},\\{\&quot;service\&quot;:\\{\&quot;id\&quot;:1,\&quot;type\&quot;:\&quot;SAME_DAY\&quot;,\&quot;name\&quot;:\&quot;GrabExpress\&quot;\\},\&quot;currency\&quot;:\\{\&quot;code\&quot;:\&quot;IDR\&quot;,\&quot;symbol\&quot;:\&quot;Rp\&quot;,\&quot;exponent\&quot;:2\\},\&quot;amount\&quot;:15000,\&quot;estimatedTimeline\&quot;:\\{\&quot;pickup\&quot;:\&quot;2019-01-24T07:16:01Z\&quot;,\&quot;dropoff\&quot;:\&quot;2019-01-24T07:28:44Z\&quot;\\},\&quot;distance\&quot;:3739\\}\\],\&quot;origin\&quot;:\\{\&quot;address\&quot;:\&quot;jl. hayam wuruk\&quot;,\&quot;keywords\&quot;:\&quot;hayam wuruk\&quot;,\&quot;coordinates\&quot;:\\{\&quot;latitude\&quot;:\\-6.166892,\&quot;longitude\&quot;:106.820899\\}\u00E2\u20AC\u0152\\},\&quot;destination\&quot;:\\{\&quot;address\&quot;:\&quot;jl. gajah mada\&quot;,\&quot;keywords\&quot;:\&quot;gajah mada\&quot;,\&quot;coordinates\&quot;:\\{\&quot;latitude\&quot;:\\-6.14104,\&quot;longitude\&quot;:106.814285\\}\u00E2\u20AC\u0152\\},\&quot;packages\&quot;:\\[\\{\&quot;name\&quot;:\&quot;Sepatu\&quot;,\&quot;description\&quot;:\&quot;Sepatu\&quot;,\&quot;quantity\&quot;:1,\&quot;price\&quot;:10000\\}\\]\\}\n\nreferensi dokumentasi API grab : [https://shipperid.atlassian.net/wiki/spaces/DEV/pages/10354689/Grab+partner+documentation]</property>
  <property name="id">Test Cases/ACM-119</property>
  <property name="source">D:\\SHIPPER\\PROJECT TEST KATALON\\Get Rate Create Order Cancel Order dan Get Status Delivery Grab Using Pyhton\\Test Cases\\ACM-119.tc</property>
  <property name="isOptional">false</property>
</record>
<record>
  <date>2019-01-30T18:12:30</date>
  <millis>1548846750786</millis>
  <sequence>6</sequence>
  <level>INFO</level>
  <class>com.kms.katalon.core.logging.KeywordLogger</class>
  <method>logMessage</method>
  <thread>1</thread>
  <message>Evaluating variables for test case</message>
  <nestedLevel>1</nestedLevel>
</record>
<record>
  <date>2019-01-30T18:12:31</date>
  <millis>1548846751974</millis>
  <sequence>7</sequence>
  <level>START</level>
  <class>com.kms.katalon.core.logging.KeywordLogger</class>
  <method>startKeyword</method>
  <thread>1</thread>
  <message>Start action : Statement - response = com.kms.katalon.core.webservice.keyword.WSBuiltInKeywords.sendRequest(com.kms.katalon.core.testobject.ObjectRepository.findTestObject(Create Order Grab))</message>
  <nestedLevel>1</nestedLevel>
  <property name="startLine">16</property>
  <property name="stepIndex">1</property>
</record>
<record>
  <date>2019-01-30T18:12:31</date>
  <millis>1548846751986</millis>
  <sequence>8</sequence>
  <level>INFO</level>
  <class>com.kms.katalon.core.logging.KeywordLogger</class>
  <method>logMessage</method>
  <thread>1</thread>
  <message>Finding Test Object with id &amp;apos;Object Repository/Create Order Grab&amp;apos;</message>
  <nestedLevel>1</nestedLevel>
</record>
<record>
  <date>2019-01-30T18:12:34</date>
  <millis>1548846754311</millis>
  <sequence>9</sequence>
  <level>INFO</level>
  <class>com.kms.katalon.core.logging.KeywordLogger</class>
  <method>logMessage</method>
  <thread>1</thread>
  <message>Checking request object</message>
  <nestedLevel>1</nestedLevel>
</record>
<record>
  <date>2019-01-30T18:12:39</date>
  <millis>1548846759611</millis>
  <sequence>10</sequence>
  <level>PASSED</level>
  <class>com.kms.katalon.core.logging.KeywordLogger</class>
  <method>logMessage</method>
  <thread>1</thread>
  <message>Send request successfully</message>
  <nestedLevel>1</nestedLevel>
</record>
<record>
  <date>2019-01-30T18:12:39</date>
  <millis>1548846759612</millis>
  <sequence>11</sequence>
  <level>END</level>
  <class>com.kms.katalon.core.logging.KeywordLogger</class>
  <method>endKeyword</method>
  <thread>1</thread>
  <message>End action : Statement - response = com.kms.katalon.core.webservice.keyword.WSBuiltInKeywords.sendRequest(com.kms.katalon.core.testobject.ObjectRepository.findTestObject(Create Order Grab))</message>
  <nestedLevel>1</nestedLevel>
</record>
<record>
  <date>2019-01-30T18:12:39</date>
  <millis>1548846759613</millis>
  <sequence>12</sequence>
  <level>START</level>
  <class>com.kms.katalon.core.logging.KeywordLogger</class>
  <method>startKeyword</method>
  <thread>1</thread>
  <message>Start action : verifyElementPropertyValue</message>
  <nestedLevel>1</nestedLevel>
  <property name="startLine">18</property>
  <property name="stepIndex">2</property>
</record>
<record>
  <date>2019-01-30T18:12:39</date>
  <millis>1548846759628</millis>
  <sequence>13</sequence>
  <level>INFO</level>
  <class>com.kms.katalon.core.logging.KeywordLogger</class>
  <method>logMessage</method>
  <thread>1</thread>
  <message>Checking response object</message>
  <nestedLevel>1</nestedLevel>
</record>
<record>
  <date>2019-01-30T18:12:40</date>
  <millis>1548846760427</millis>
  <sequence>14</sequence>
  <level>FAILED</level>
  <class>com.kms.katalon.core.logging.KeywordLogger</class>
  <method>logMessage</method>
  <thread>1</thread>
  <message>Expected element property value &amp;apos;success&amp;apos; is not equal with actual property value &amp;apos;ALLOCATING&amp;apos;</message>
  <nestedLevel>1</nestedLevel>
</record>
<record>
  <date>2019-01-30T18:12:40</date>
  <millis>1548846760429</millis>
  <sequence>15</sequence>
  <level>FAILED</level>
  <class>com.kms.katalon.core.logging.KeywordLogger</class>
  <method>logMessage</method>
  <thread>1</thread>
  <message>Unable to verify element property value (Root cause: Expected element property value &amp;apos;success&amp;apos; is not equal with actual property value &amp;apos;ALLOCATING&amp;apos;)</message>
  <nestedLevel>1</nestedLevel>
</record>
<record>
  <date>2019-01-30T18:12:40</date>
  <millis>1548846760431</millis>
  <sequence>16</sequence>
  <level>END</level>
  <class>com.kms.katalon.core.logging.KeywordLogger</class>
  <method>endKeyword</method>
  <thread>1</thread>
  <message>End action : verifyElementPropertyValue</message>
  <nestedLevel>1</nestedLevel>
</record>
<record>
  <date>2019-01-30T18:12:40</date>
  <millis>1548846760433</millis>
  <sequence>17</sequence>
  <logger>com.kms.katalon.core.logging.KeywordLogger</logger>
  <level>FAILED</level>
  <class>com.kms.katalon.core.logging.KeywordLogger</class>
  <method>logMessage</method>
  <thread>1</thread>
  <message>Test Cases/ACM-119 FAILED because (of) (Stack trace: com.kms.katalon.core.exception.StepFailedException: Unable to verify element property value (Root cause: Expected element property value &amp;apos;success&amp;apos; is not equal with actual property value &amp;apos;ALLOCATING&amp;apos;)\r\n\tat com.kms.katalon.core.keyword.internal.KeywordMain.stepFailed(KeywordMain.groovy:36)\r\n\tat com.kms.katalon.core.keyword.internal.KeywordMain.stepFailed(KeywordMain.groovy)\r\n\tat com.kms.katalon.core.keyword.internal.KeywordMain.runKeyword(KeywordMain.groovy:56)\r\n\tat com.kms.katalon.core.webservice.keyword.builtin.VerifyElementPropertyValueKeyword.verifyElementPropertyValue(VerifyElementPropertyValueKeyword.groovy:48)\r\n\tat com.kms.katalon.core.webservice.keyword.builtin.VerifyElementPropertyValueKeyword.execute(VerifyElementPropertyValueKeyword.groovy:43)\r\n\tat com.kms.katalon.core.keyword.internal.KeywordExecutor.executeKeywordForPlatform(KeywordExecutor.groovy:53)\r\n\tat com.kms.katalon.core.webservice.keyword.WSBuiltInKeywords.verifyElementPropertyValue(WSBuiltInKeywords.groovy:123)\r\n\tat com.kms.katalon.core.webservice.keyword.WSBuiltInKeywords$verifyElementPropertyValue$0.call(Unknown Source)\r\n\tat org.codehaus.groovy.runtime.callsite.CallSiteArray.defaultCall(CallSiteArray.java:48)\r\n\tat org.codehaus.groovy.runtime.callsite.AbstractCallSite.call(AbstractCallSite.java:113)\r\n\tat org.codehaus.groovy.runtime.callsite.AbstractCallSite.call(AbstractCallSite.java:141)\r\n\tat Script1548845974753.run(Script1548845974753.groovy:18)\r\n\tat com.kms.katalon.core.main.ScriptEngine.run(ScriptEngine.java:183)\r\n\tat com.kms.katalon.core.main.ScriptEngine.runScriptAsRawText(ScriptEngine.java:108)\r\n\tat com.kms.katalon.core.main.TestCaseExecutor.runScript(TestCaseExecutor.java:294)\r\n\tat com.kms.katalon.core.main.TestCaseExecutor.doExecute(TestCaseExecutor.java:285)\r\n\tat com.kms.katalon.core.main.TestCaseExecutor.processExecutionPhase(TestCaseExecutor.java:264)\r\n\tat com.kms.katalon.core.main.TestCaseExecutor.accessMainPhase(TestCaseExecutor.java:256)\r\n\tat com.kms.katalon.core.main.TestCaseExecutor.execute(TestCaseExecutor.java:200)\r\n\tat com.kms.katalon.core.main.TestSuiteExecutor.accessTestCaseMainPhase(TestSuiteExecutor.java:129)\r\n\tat com.kms.katalon.core.main.TestSuiteExecutor.accessTestSuiteMainPhase(TestSuiteExecutor.java:112)\r\n\tat com.kms.katalon.core.main.TestSuiteExecutor.execute(TestSuiteExecutor.java:81)\r\n\tat com.kms.katalon.core.main.TestCaseMain.startTestSuite(TestCaseMain.java:142)\r\n\tat com.kms.katalon.core.main.TestCaseMain$startTestSuite$0.call(Unknown Source)\r\n\tat org.codehaus.groovy.runtime.callsite.CallSiteArray.defaultCall(CallSiteArray.java:48)\r\n\tat org.codehaus.groovy.runtime.callsite.AbstractCallSite.call(AbstractCallSite.java:113)\r\n\tat org.codehaus.groovy.runtime.callsite.AbstractCallSite.call(AbstractCallSite.java:141)\r\n\tat TempTestSuite1548846724747.run(TempTestSuite1548846724747.groovy:36)\r\n\tat groovy.lang.GroovyShell.runScriptOrMainOrTestOrRunnable(GroovyShell.java:263)\r\n\tat groovy.lang.GroovyShell.run(GroovyShell.java:518)\r\n\tat groovy.lang.GroovyShell.run(GroovyShell.java:507)\r\n\tat groovy.ui.GroovyMain.processOnce(GroovyMain.java:653)\r\n\tat groovy.ui.GroovyMain.run(GroovyMain.java:384)\r\n\tat groovy.ui.GroovyMain.process(GroovyMain.java:370)\r\n\tat groovy.ui.GroovyMain.processArgs(GroovyMain.java:129)\r\n\tat groovy.ui.GroovyMain.main(GroovyMain.java:109)\r\n\tat sun.reflect.NativeMethodAccessorImpl.invoke0(Native Method)\r\n\tat sun.reflect.NativeMethodAccessorImpl.invoke(NativeMethodAccessorImpl.java:62)\r\n\tat sun.reflect.DelegatingMethodAccessorImpl.invoke(DelegatingMethodAccessorImpl.java:43)\r\n\tat java.lang.reflect.Method.invoke(Method.java:498)\r\n\tat org.codehaus.groovy.tools.GroovyStarter.rootLoader(GroovyStarter.java:109)\r\n\tat org.codehaus.groovy.tools.GroovyStarter.main(GroovyStarter.java:131)\r\n)</message>
  <exception>
    <message>com.kms.katalon.core.exception.StepFailedException: Unable to verify element property value (Root cause: Expected element property value 'success' is not equal with actual property value 'ALLOCATING')</message>
    <frame>
      <class>com.kms.katalon.core.keyword.internal.KeywordMain</class>
      <method>stepFailed</method>
      <line>36</line>
    </frame>
    <frame>
      <class>com.kms.katalon.core.keyword.internal.KeywordMain</class>
      <method>stepFailed</method>
    </frame>
    <frame>
      <class>com.kms.katalon.core.keyword.internal.KeywordMain</class>
      <method>runKeyword</method>
      <line>56</line>
    </frame>
    <frame>
      <class>com.kms.katalon.core.webservice.keyword.builtin.VerifyElementPropertyValueKeyword</class>
      <method>verifyElementPropertyValue</method>
      <line>48</line>
    </frame>
    <frame>
      <class>com.kms.katalon.core.webservice.keyword.builtin.VerifyElementPropertyValueKeyword</class>
      <method>execute</method>
      <line>43</line>
    </frame>
    <frame>
      <class>com.kms.katalon.core.keyword.internal.KeywordExecutor</class>
      <method>executeKeywordForPlatform</method>
      <line>53</line>
    </frame>
    <frame>
      <class>com.kms.katalon.core.webservice.keyword.WSBuiltInKeywords</class>
      <method>verifyElementPropertyValue</method>
      <line>123</line>
    </frame>
    <frame>
      <class>com.kms.katalon.core.webservice.keyword.WSBuiltInKeywords$verifyElementPropertyValue$0</class>
      <method>call</method>
    </frame>
    <frame>
      <class>org.codehaus.groovy.runtime.callsite.CallSiteArray</class>
      <method>defaultCall</method>
      <line>48</line>
    </frame>
    <frame>
      <class>org.codehaus.groovy.runtime.callsite.AbstractCallSite</class>
      <method>call</method>
      <line>113</line>
    </frame>
    <frame>
      <class>org.codehaus.groovy.runtime.callsite.AbstractCallSite</class>
      <method>call</method>
      <line>141</line>
    </frame>
    <frame>
      <class>Script1548845974753</class>
      <method>run</method>
      <line>18</line>
    </frame>
    <frame>
      <class>com.kms.katalon.core.main.ScriptEngine</class>
      <method>run</method>
      <line>183</line>
    </frame>
    <frame>
      <class>com.kms.katalon.core.main.ScriptEngine</class>
      <method>runScriptAsRawText</method>
      <line>108</line>
    </frame>
    <frame>
      <class>com.kms.katalon.core.main.TestCaseExecutor</class>
      <method>runScript</method>
      <line>294</line>
    </frame>
    <frame>
      <class>com.kms.katalon.core.main.TestCaseExecutor</class>
      <method>doExecute</method>
      <line>285</line>
    </frame>
    <frame>
      <class>com.kms.katalon.core.main.TestCaseExecutor</class>
      <method>processExecutionPhase</method>
      <line>264</line>
    </frame>
    <frame>
      <class>com.kms.katalon.core.main.TestCaseExecutor</class>
      <method>accessMainPhase</method>
      <line>256</line>
    </frame>
    <frame>
      <class>com.kms.katalon.core.main.TestCaseExecutor</class>
      <method>execute</method>
      <line>200</line>
    </frame>
    <frame>
      <class>com.kms.katalon.core.main.TestSuiteExecutor</class>
      <method>accessTestCaseMainPhase</method>
      <line>129</line>
    </frame>
    <frame>
      <class>com.kms.katalon.core.main.TestSuiteExecutor</class>
      <method>accessTestSuiteMainPhase</method>
      <line>112</line>
    </frame>
    <frame>
      <class>com.kms.katalon.core.main.TestSuiteExecutor</class>
      <method>execute</method>
      <line>81</line>
    </frame>
    <frame>
      <class>com.kms.katalon.core.main.TestCaseMain</class>
      <method>startTestSuite</method>
      <line>142</line>
    </frame>
    <frame>
      <class>com.kms.katalon.core.main.TestCaseMain$startTestSuite$0</class>
      <method>call</method>
    </frame>
    <frame>
      <class>org.codehaus.groovy.runtime.callsite.CallSiteArray</class>
      <method>defaultCall</method>
      <line>48</line>
    </frame>
    <frame>
      <class>org.codehaus.groovy.runtime.callsite.AbstractCallSite</class>
      <method>call</method>
      <line>113</line>
    </frame>
    <frame>
      <class>org.codehaus.groovy.runtime.callsite.AbstractCallSite</class>
      <method>call</method>
      <line>141</line>
    </frame>
    <frame>
      <class>TempTestSuite1548846724747</class>
      <method>run</method>
      <line>36</line>
    </frame>
    <frame>
      <class>groovy.lang.GroovyShell</class>
      <method>runScriptOrMainOrTestOrRunnable</method>
      <line>263</line>
    </frame>
    <frame>
      <class>groovy.lang.GroovyShell</class>
      <method>run</method>
      <line>518</line>
    </frame>
    <frame>
      <class>groovy.lang.GroovyShell</class>
      <method>run</method>
      <line>507</line>
    </frame>
    <frame>
      <class>groovy.ui.GroovyMain</class>
      <method>processOnce</method>
      <line>653</line>
    </frame>
    <frame>
      <class>groovy.ui.GroovyMain</class>
      <method>run</method>
      <line>384</line>
    </frame>
    <frame>
      <class>groovy.ui.GroovyMain</class>
      <method>process</method>
      <line>370</line>
    </frame>
    <frame>
      <class>groovy.ui.GroovyMain</class>
      <method>processArgs</method>
      <line>129</line>
    </frame>
    <frame>
      <class>groovy.ui.GroovyMain</class>
      <method>main</method>
      <line>109</line>
    </frame>
    <frame>
      <class>sun.reflect.NativeMethodAccessorImpl</class>
      <method>invoke0</method>
    </frame>
    <frame>
      <class>sun.reflect.NativeMethodAccessorImpl</class>
      <method>invoke</method>
      <line>62</line>
    </frame>
    <frame>
      <class>sun.reflect.DelegatingMethodAccessorImpl</class>
      <method>invoke</method>
      <line>43</line>
    </frame>
    <frame>
      <class>java.lang.reflect.Method</class>
      <method>invoke</method>
      <line>498</line>
    </frame>
    <frame>
      <class>org.codehaus.groovy.tools.GroovyStarter</class>
      <method>rootLoader</method>
      <line>109</line>
    </frame>
    <frame>
      <class>org.codehaus.groovy.tools.GroovyStarter</class>
      <method>main</method>
      <line>131</line>
    </frame>
  </exception>
  <nestedLevel>0</nestedLevel>
</record>
